[0705/190847.386:ERROR:crash_report_database_win.cc(469)] failed to stat report
[0705/190847.388:ERROR:crash_report_database_win.cc(469)] failed to stat report
[0705/190847.388:ERROR:crash_report_database_win.cc(469)] failed to stat report
[0705/190847.388:ERROR:crash_report_database_win.cc(469)] failed to stat report
[0705/190847.388:ERROR:crash_report_database_win.cc(469)] failed to stat report
[0705/190847.388:ERROR:crash_report_database_win.cc(469)] failed to stat report
[0705/192846.103:ERROR:crash_report_database_win.cc(469)] failed to stat report
[0705/192846.107:ERROR:crash_report_database_win.cc(469)] failed to stat report
[0705/192846.107:ERROR:crash_report_database_win.cc(469)] failed to stat report
[0705/192846.107:ERROR:crash_report_database_win.cc(469)] failed to stat report
[0705/192846.107:ERROR:crash_report_database_win.cc(469)] failed to stat report
[0705/192846.107:ERROR:crash_report_database_win.cc(469)] failed to stat report
[0705/193933.380:ERROR:crash_report_database_win.cc(469)] failed to stat report
[0705/193933.381:ERROR:crash_report_database_win.cc(469)] failed to stat report
[0705/193933.381:ERROR:crash_report_database_win.cc(469)] failed to stat report
[0705/193933.381:ERROR:crash_report_database_win.cc(469)] failed to stat report
[0705/193933.381:ERROR:crash_report_database_win.cc(469)] failed to stat report
[0705/193933.381:ERROR:crash_report_database_win.cc(469)] failed to stat report
